{
    "properties": [
      {
        "name": "abpres.setup.admin.username",
        "type": "java.lang.String",
        "description": "Adição do nome de usuario admin padrão"
      },
      {
        "name": "abpres.setup.admin.email",
        "type": "java.lang.String",
        "description": "Adição do email de usuario admin padrão"
      },
      {
        "name": "abpres.setup.admin.password",
        "type": "java.lang.String",
        "description": "Adição da senha de usuario admin padrão"
      },
      {
        "name": "abpres.setup.jwt.secret",
        "type": "java.lang.String",
        "description": "Segredo do token jwt"
      },
      {
        "name": "abpres.setup.jwt.expiration-time",
        "type": "java.lang.Long",
        "description": "Tempo de expiração do token jwt"
      },
      {
        "name": "abpres.setup.jwt.token-prefix",
        "type": "java.lang.String",
        "description": "Nome do prefixo do token nas requisições autorizadas"
      },
      {
        "name": "abpres.setup.jwt.header-string",
        "type": "java.lang.String",
        "description": "Nome do campo do Header de retorno com o token jwt"
      }
    ]
  }